%YAML 1.1
%TAG !u! tag:unity3d.com,2011:
--- !u!114 &11400000
MonoBehaviour:
  m_ObjectHideFlags: 0
  m_CorrespondingSourceObject: {fileID: 0}
  m_PrefabInstance: {fileID: 0}
  m_PrefabAsset: {fileID: 0}
  m_GameObject: {fileID: 0}
  m_Enabled: 1
  m_EditorHideFlags: 0
  m_Script: {fileID: 11500000, guid: c137af91199ad0a44a6e30cea6a99812, type: 3}
  m_Name: Dough
  m_EditorClassIdentifier: 
  itemName: Dough
  sprite: {fileID: 86209994, guid: 345c9ba4c3c7e244a95eab01ec4d1dfd, type: 3}
  requiredProgress: 10
  station: 1
  productItem: {fileID: 11400000, guid: 22c71fb8cee903540b5d374d3a34b6c6, type: 2}
  finishedProduct: 0
